<?xml version="1.0"?>
<robot name="dobot">

  <material name="black">
        <color rgba="0 0 0 1" />
    </material>
    <material name="white">
        <color rgba="1 1 1 1" />
    </material>

  <property name="PI" value="3.1415926535897931" /> 
  <property name="joint12_degree" value="0" /> 
  <property name="joint23_degree" value="0" />
  <property name="joint34_degree" value="90" />

  <link name="base_link" >
    <visual>
       <geometry>
	  <mesh filename="package://dobot/meshes/base_link.STL" />
       </geometry>
       <material name="white"/>
    </visual>
  </link>

  <link name="link2" >
    <visual>
       <geometry>
	  <mesh filename="package://dobot/meshes/link_1.dae" />
       </geometry>
       <origin xyz="0 0 0" rpy="0 0 0"/> 
    </visual>
  </link>

  <link name="link3" >
    <visual>
       <geometry>
          <mesh filename="package://dobot/meshes/link_2.dae" />
       </geometry>
       <origin xyz="0 0 0" rpy="0 0 0"/> 
    </visual>
  </link>

  <link name="link4" >
    <visual>
       <geometry>
          <mesh filename="package://dobot/meshes/link_5.dae" />
       </geometry>
       <origin xyz="0 0 0" rpy="0 0 0"/> 
    </visual>
  </link>

  <link name="link5" >
    <visual>
       <geometry>
          <mesh filename="package://dobot/meshes/link_6.STL" />
       </geometry>
       <origin xyz="0 0 0" rpy="0 0 0"/>
       <material name="black"/>
    </visual>
  </link>

  <joint name="joint12" type="continuous">
      <axis xyz="0 0 1"/>
      <parent link="base_link"/>
      <child link="link2"/>
      <origin xyz="0 0 0.028" rpy="0 0 ${joint12_degree/180*PI}" /> 
  </joint>

  <joint name="joint23" type="revolute">
        <origin xyz="-0.01175 0 0.114" rpy="1.570796325 0 -1.570796325" /> 
        <parent link="link2" />
        <child link="link3" />
        <axis xyz="0 0 1" />
        <limit effort="150.0" lower="0" upper="1.570796325" velocity="3.15" />
  </joint>


  <joint name="joint34" type="revolute">
        <origin xyz="0.02699 0.13228 -0.01175" rpy="0 3.14159265 0" /> 
        <parent link="link3" />
        <child link="link4" />
        <axis xyz="0 0 -1" />
        <limit effort="150.0" lower="0" upper="1.570796325" velocity="3.15" />
  </joint>

  <joint name="joint45" type="revolute">
        <origin xyz="0.07431 -0.12684 0.0" rpy="0 3.14159265 0" />
        <parent link="link4" />
        <child link="link5" />
        <axis xyz="0 0 1" />
        <limit effort="150.0" lower="-3.14159265" upper="3.14159265" velocity="3.15" />
    </joint>

</robot>
